{
  "parameters": {
    "network": "",
    "client": "client",
    "node": "dunscan",
    "app_version": 0,
    "manager": "faucet",
    "verbose": false,
    "debug": false,
    "rpc-verbose": false,
    "bigmaps-as-maps": false
  }
}
